Suite/Test/Step Name,Browser,Description,Tag,Start time,End time,Duration,Status
Product Details,,,,2023-11-08 09:52:02,2023-11-08 09:52:58,56.053s,PASSED
,,,,,,,
Test Cases/Step Definition/Product Details/User want to see a product detail,,,,2023-11-08 09:52:03,2023-11-08 09:52:58,55.577s,PASSED
Start listener action : beforeTestCase,,,,2023-11-08 09:52:03,2023-11-08 09:52:39,35.970s,PASSED
"callTestCase(findTestCase(""Step Definition/Login/User want to login using correct credential""), [:], STOP_ON_FAILURE)",,,,2023-11-08 09:52:39,2023-11-08 09:52:50,11.300s,PASSED
"callTestCase(findTestCase(""Pages/Products/Tap A Product""), [:], STOP_ON_FAILURE)",,,,2023-11-08 09:52:50,2023-11-08 09:52:52,1.197s,PASSED
"callTestCase(findTestCase(""Pages/Product Details/Verify Product Name""), [:], STOP_ON_FAILURE)",,,,2023-11-08 09:52:52,2023-11-08 09:52:55,3.191s,PASSED
Start listener action : afterTestCase,,,,2023-11-08 09:52:55,2023-11-08 09:52:58,3.449s,PASSED
